{
  "version": 1,
  "serviceConfiguration": {
    "apiName": "amplifyapp",
    "serviceName": "AppSync",
    "defaultAuthType": {
      "mode": "API_KEY",
      "expirationTime": 7
    },
    "additionalAuthTypes": [
      {
        "mode": "AMAZON_COGNITO_USER_POOLS",
        "cognitoUserPoolId": "authamplifyapp021ae276"
      }
    ]
  }
}